EESchema Schematic File Version 4
EELAYER 30 0
EELAYER END
$Descr A4 11693 8268
encoding utf-8
Sheet 1 1
Title ""
Date ""
Rev ""
Comp ""
Comment1 ""
Comment2 ""
Comment3 ""
Comment4 ""
$EndDescr
$Comp
L Connector:Conn_01x04_Male J1
U 1 1 5F2F057F
P 800 1500
F 0 "J1" H 908 1781 50  0000 C CNN
F 1 "pwr_conn" H 908 1690 50  0000 C CNN
F 2 "project_lib:Klemme" H 800 1500 50  0001 C CNN
F 3 "~" H 800 1500 50  0001 C CNN
	1    800  1500
	1    0    0    -1  
$EndComp
$Comp
L Connector_Generic:Conn_02x08_Odd_Even J2
U 1 1 5F2F09A2
P 3100 2050
F 0 "J2" H 3150 2567 50  0000 C CNN
F 1 "pwr" H 3150 2476 50  0000 C CNN
F 2 "project_lib:Pwr_eurorack" H 3100 2050 50  0001 C CNN
F 3 "~" H 3100 2050 50  0001 C CNN
	1    3100 2050
	1    0    0    -1  
$EndComp
Wire Wire Line
	1000 1400 1200 1400
Text Label 1200 1400 2    50   ~ 0
+12V
Wire Wire Line
	1000 1700 1200 1700
Text Label 1200 1700 2    50   ~ 0
-12V
Wire Wire Line
	1000 1600 1200 1600
Wire Wire Line
	1200 1600 1200 1550
Wire Wire Line
	1200 1500 1000 1500
Wire Wire Line
	1200 1550 1300 1550
Wire Wire Line
	1300 1550 1300 1600
Connection ~ 1200 1550
Wire Wire Line
	1200 1550 1200 1500
$Comp
L power:Earth #PWR0101
U 1 1 5F2F3D5E
P 1300 1600
F 0 "#PWR0101" H 1300 1350 50  0001 C CNN
F 1 "Earth" H 1300 1450 50  0001 C CNN
F 2 "" H 1300 1600 50  0001 C CNN
F 3 "~" H 1300 1600 50  0001 C CNN
	1    1300 1600
	1    0    0    -1  
$EndComp
Text Label 1750 1200 0    50   ~ 0
+12V
Text Label 1750 1350 0    50   ~ 0
-12V
Text Label 1750 750  0    50   ~ 0
Gate
Text Label 1750 900  0    50   ~ 0
CV
Text Label 1750 1050 0    50   ~ 0
+5V
Wire Wire Line
	2900 1750 2850 1750
Wire Wire Line
	2850 1750 2850 750 
Wire Wire Line
	2900 1850 2750 1850
Wire Wire Line
	2750 1850 2750 900 
Wire Wire Line
	2750 900  1750 900 
Wire Wire Line
	2900 1950 2650 1950
Wire Wire Line
	2650 1950 2650 1050
Wire Wire Line
	2650 1050 1750 1050
Wire Wire Line
	2900 2050 2550 2050
Wire Wire Line
	2550 2050 2550 1200
Wire Wire Line
	2550 1200 1750 1200
Wire Wire Line
	2900 2450 2450 2450
Wire Wire Line
	2450 2450 2450 1350
Wire Wire Line
	2450 1350 1750 1350
Wire Wire Line
	3400 1750 3500 1750
Wire Wire Line
	3500 1750 3500 750 
Wire Wire Line
	1750 750  2850 750 
Connection ~ 2850 750 
Wire Wire Line
	2850 750  3500 750 
Wire Wire Line
	3600 1850 3600 900 
Wire Wire Line
	3600 900  2750 900 
Wire Wire Line
	3400 1850 3600 1850
Connection ~ 2750 900 
Wire Wire Line
	3400 1950 3700 1950
Wire Wire Line
	3700 1950 3700 1050
Wire Wire Line
	3700 1050 2650 1050
Connection ~ 2650 1050
Wire Wire Line
	3400 2050 3800 2050
Wire Wire Line
	3800 2050 3800 1200
Wire Wire Line
	3800 1200 2550 1200
Connection ~ 2550 1200
Wire Wire Line
	3400 2450 3900 2450
Wire Wire Line
	3900 2450 3900 1350
Wire Wire Line
	3900 1350 2450 1350
Connection ~ 2450 1350
Wire Wire Line
	2900 2150 2850 2150
Wire Wire Line
	2850 2150 2850 2250
Wire Wire Line
	2850 2350 2900 2350
Wire Wire Line
	2900 2250 2850 2250
Connection ~ 2850 2250
Wire Wire Line
	2850 2250 2850 2350
Wire Wire Line
	3400 2150 3450 2150
Wire Wire Line
	3450 2150 3450 2250
Wire Wire Line
	3450 2350 3400 2350
Wire Wire Line
	3400 2250 3450 2250
Connection ~ 3450 2250
Wire Wire Line
	3450 2250 3450 2350
$Comp
L power:Earth #PWR0102
U 1 1 5F303EA6
P 2750 2300
F 0 "#PWR0102" H 2750 2050 50  0001 C CNN
F 1 "Earth" H 2750 2150 50  0001 C CNN
F 2 "" H 2750 2300 50  0001 C CNN
F 3 "~" H 2750 2300 50  0001 C CNN
	1    2750 2300
	1    0    0    -1  
$EndComp
$Comp
L power:Earth #PWR0103
U 1 1 5F3041F2
P 3550 2300
F 0 "#PWR0103" H 3550 2050 50  0001 C CNN
F 1 "Earth" H 3550 2150 50  0001 C CNN
F 2 "" H 3550 2300 50  0001 C CNN
F 3 "~" H 3550 2300 50  0001 C CNN
	1    3550 2300
	1    0    0    -1  
$EndComp
Wire Wire Line
	3550 2300 3550 2250
Wire Wire Line
	3550 2250 3450 2250
Wire Wire Line
	2750 2300 2750 2250
Wire Wire Line
	2750 2250 2850 2250
$Comp
L Connector_Generic:Conn_02x08_Odd_Even J3
U 1 1 5F307D76
P 4850 2050
F 0 "J3" H 4900 2567 50  0000 C CNN
F 1 "pwr" H 4900 2476 50  0000 C CNN
F 2 "project_lib:Pwr_eurorack" H 4850 2050 50  0001 C CNN
F 3 "~" H 4850 2050 50  0001 C CNN
	1    4850 2050
	1    0    0    -1  
$EndComp
Wire Wire Line
	4650 1750 4600 1750
Wire Wire Line
	4600 1750 4600 750 
Wire Wire Line
	4650 1850 4500 1850
Wire Wire Line
	4500 1850 4500 900 
Wire Wire Line
	4650 1950 4400 1950
Wire Wire Line
	4400 1950 4400 1050
Wire Wire Line
	4650 2050 4300 2050
Wire Wire Line
	4300 2050 4300 1200
Wire Wire Line
	4650 2450 4200 2450
Wire Wire Line
	4200 2450 4200 1350
Wire Wire Line
	5150 1750 5250 1750
Wire Wire Line
	5250 1750 5250 750 
Wire Wire Line
	5350 1850 5350 900 
Wire Wire Line
	5150 1850 5350 1850
Wire Wire Line
	5150 1950 5450 1950
Wire Wire Line
	5450 1950 5450 1050
Wire Wire Line
	5150 2050 5550 2050
Wire Wire Line
	5550 2050 5550 1200
Wire Wire Line
	5150 2450 5650 2450
Wire Wire Line
	5650 2450 5650 1350
Wire Wire Line
	4650 2150 4600 2150
Wire Wire Line
	4600 2150 4600 2250
Wire Wire Line
	4600 2350 4650 2350
Wire Wire Line
	4650 2250 4600 2250
Connection ~ 4600 2250
Wire Wire Line
	4600 2250 4600 2350
Wire Wire Line
	5150 2150 5200 2150
Wire Wire Line
	5200 2150 5200 2250
Wire Wire Line
	5200 2350 5150 2350
Wire Wire Line
	5150 2250 5200 2250
Connection ~ 5200 2250
Wire Wire Line
	5200 2250 5200 2350
$Comp
L power:Earth #PWR0104
U 1 1 5F307D9C
P 4500 2300
F 0 "#PWR0104" H 4500 2050 50  0001 C CNN
F 1 "Earth" H 4500 2150 50  0001 C CNN
F 2 "" H 4500 2300 50  0001 C CNN
F 3 "~" H 4500 2300 50  0001 C CNN
	1    4500 2300
	1    0    0    -1  
$EndComp
$Comp
L power:Earth #PWR0105
U 1 1 5F307DA2
P 5300 2300
F 0 "#PWR0105" H 5300 2050 50  0001 C CNN
F 1 "Earth" H 5300 2150 50  0001 C CNN
F 2 "" H 5300 2300 50  0001 C CNN
F 3 "~" H 5300 2300 50  0001 C CNN
	1    5300 2300
	1    0    0    -1  
$EndComp
Wire Wire Line
	5300 2300 5300 2250
Wire Wire Line
	5300 2250 5200 2250
Wire Wire Line
	4500 2300 4500 2250
Wire Wire Line
	4500 2250 4600 2250
$Comp
L Connector_Generic:Conn_02x08_Odd_Even J4
U 1 1 5F30B26E
P 6600 2050
F 0 "J4" H 6650 2567 50  0000 C CNN
F 1 "pwr" H 6650 2476 50  0000 C CNN
F 2 "project_lib:Pwr_eurorack" H 6600 2050 50  0001 C CNN
F 3 "~" H 6600 2050 50  0001 C CNN
	1    6600 2050
	1    0    0    -1  
$EndComp
Wire Wire Line
	6400 1750 6350 1750
Wire Wire Line
	6350 1750 6350 750 
Wire Wire Line
	6400 1850 6250 1850
Wire Wire Line
	6250 1850 6250 900 
Wire Wire Line
	6400 1950 6150 1950
Wire Wire Line
	6150 1950 6150 1050
Wire Wire Line
	6400 2050 6050 2050
Wire Wire Line
	6050 2050 6050 1200
Wire Wire Line
	6400 2450 5950 2450
Wire Wire Line
	5950 2450 5950 1350
Wire Wire Line
	6900 1750 7000 1750
Wire Wire Line
	7000 1750 7000 750 
Wire Wire Line
	7100 1850 7100 900 
Wire Wire Line
	6900 1850 7100 1850
Wire Wire Line
	6900 1950 7200 1950
Wire Wire Line
	7200 1950 7200 1050
Wire Wire Line
	6900 2050 7300 2050
Wire Wire Line
	7300 2050 7300 1200
Wire Wire Line
	6900 2450 7400 2450
Wire Wire Line
	7400 2450 7400 1350
Wire Wire Line
	6400 2150 6350 2150
Wire Wire Line
	6350 2150 6350 2250
Wire Wire Line
	6350 2350 6400 2350
Wire Wire Line
	6400 2250 6350 2250
Connection ~ 6350 2250
Wire Wire Line
	6350 2250 6350 2350
Wire Wire Line
	6900 2150 6950 2150
Wire Wire Line
	6950 2150 6950 2250
Wire Wire Line
	6950 2350 6900 2350
Wire Wire Line
	6900 2250 6950 2250
Connection ~ 6950 2250
Wire Wire Line
	6950 2250 6950 2350
$Comp
L power:Earth #PWR0106
U 1 1 5F30B294
P 6250 2300
F 0 "#PWR0106" H 6250 2050 50  0001 C CNN
F 1 "Earth" H 6250 2150 50  0001 C CNN
F 2 "" H 6250 2300 50  0001 C CNN
F 3 "~" H 6250 2300 50  0001 C CNN
	1    6250 2300
	1    0    0    -1  
$EndComp
$Comp
L power:Earth #PWR0107
U 1 1 5F30B29A
P 7050 2300
F 0 "#PWR0107" H 7050 2050 50  0001 C CNN
F 1 "Earth" H 7050 2150 50  0001 C CNN
F 2 "" H 7050 2300 50  0001 C CNN
F 3 "~" H 7050 2300 50  0001 C CNN
	1    7050 2300
	1    0    0    -1  
$EndComp
Wire Wire Line
	7050 2300 7050 2250
Wire Wire Line
	7050 2250 6950 2250
Wire Wire Line
	6250 2300 6250 2250
Wire Wire Line
	6250 2250 6350 2250
$Comp
L Connector_Generic:Conn_02x08_Odd_Even J5
U 1 1 5F310333
P 8350 2050
F 0 "J5" H 8400 2567 50  0000 C CNN
F 1 "pwr" H 8400 2476 50  0000 C CNN
F 2 "project_lib:Pwr_eurorack" H 8350 2050 50  0001 C CNN
F 3 "~" H 8350 2050 50  0001 C CNN
	1    8350 2050
	1    0    0    -1  
$EndComp
Wire Wire Line
	8150 1750 8100 1750
Wire Wire Line
	8100 1750 8100 750 
Wire Wire Line
	8150 1850 8000 1850
Wire Wire Line
	8000 1850 8000 900 
Wire Wire Line
	8150 1950 7900 1950
Wire Wire Line
	7900 1950 7900 1050
Wire Wire Line
	8150 2050 7800 2050
Wire Wire Line
	7800 2050 7800 1200
Wire Wire Line
	8150 2450 7700 2450
Wire Wire Line
	7700 2450 7700 1350
Wire Wire Line
	8650 1750 8750 1750
Wire Wire Line
	8750 1750 8750 750 
Wire Wire Line
	8850 1850 8850 900 
Wire Wire Line
	8650 1850 8850 1850
Wire Wire Line
	8650 1950 8950 1950
Wire Wire Line
	8950 1950 8950 1050
Wire Wire Line
	8650 2050 9050 2050
Wire Wire Line
	9050 2050 9050 1200
Wire Wire Line
	8650 2450 9150 2450
Wire Wire Line
	9150 2450 9150 1350
Wire Wire Line
	8150 2150 8100 2150
Wire Wire Line
	8100 2150 8100 2250
Wire Wire Line
	8100 2350 8150 2350
Wire Wire Line
	8150 2250 8100 2250
Connection ~ 8100 2250
Wire Wire Line
	8100 2250 8100 2350
Wire Wire Line
	8650 2150 8700 2150
Wire Wire Line
	8700 2150 8700 2250
Wire Wire Line
	8700 2350 8650 2350
Wire Wire Line
	8650 2250 8700 2250
Connection ~ 8700 2250
Wire Wire Line
	8700 2250 8700 2350
$Comp
L power:Earth #PWR0108
U 1 1 5F310359
P 8000 2300
F 0 "#PWR0108" H 8000 2050 50  0001 C CNN
F 1 "Earth" H 8000 2150 50  0001 C CNN
F 2 "" H 8000 2300 50  0001 C CNN
F 3 "~" H 8000 2300 50  0001 C CNN
	1    8000 2300
	1    0    0    -1  
$EndComp
$Comp
L power:Earth #PWR0109
U 1 1 5F31035F
P 8800 2300
F 0 "#PWR0109" H 8800 2050 50  0001 C CNN
F 1 "Earth" H 8800 2150 50  0001 C CNN
F 2 "" H 8800 2300 50  0001 C CNN
F 3 "~" H 8800 2300 50  0001 C CNN
	1    8800 2300
	1    0    0    -1  
$EndComp
Wire Wire Line
	8800 2300 8800 2250
Wire Wire Line
	8800 2250 8700 2250
Wire Wire Line
	8000 2300 8000 2250
Wire Wire Line
	8000 2250 8100 2250
$Comp
L Connector_Generic:Conn_02x08_Odd_Even J6
U 1 1 5F316FBC
P 10100 2050
F 0 "J6" H 10150 2567 50  0000 C CNN
F 1 "pwr" H 10150 2476 50  0000 C CNN
F 2 "project_lib:Pwr_eurorack" H 10100 2050 50  0001 C CNN
F 3 "~" H 10100 2050 50  0001 C CNN
	1    10100 2050
	1    0    0    -1  
$EndComp
Wire Wire Line
	9900 1750 9850 1750
Wire Wire Line
	9850 1750 9850 750 
Wire Wire Line
	9900 1850 9750 1850
Wire Wire Line
	9750 1850 9750 900 
Wire Wire Line
	9900 1950 9650 1950
Wire Wire Line
	9650 1950 9650 1050
Wire Wire Line
	9900 2050 9550 2050
Wire Wire Line
	9550 2050 9550 1200
Wire Wire Line
	9900 2450 9450 2450
Wire Wire Line
	9450 2450 9450 1350
Wire Wire Line
	10400 1750 10500 1750
Wire Wire Line
	10500 1750 10500 750 
Wire Wire Line
	10600 1850 10600 900 
Wire Wire Line
	10400 1850 10600 1850
Wire Wire Line
	10400 1950 10700 1950
Wire Wire Line
	10700 1950 10700 1050
Wire Wire Line
	10400 2050 10800 2050
Wire Wire Line
	10800 2050 10800 1200
Wire Wire Line
	10400 2450 10900 2450
Wire Wire Line
	10900 2450 10900 1350
Wire Wire Line
	9900 2150 9850 2150
Wire Wire Line
	9850 2150 9850 2250
Wire Wire Line
	9850 2350 9900 2350
Wire Wire Line
	9900 2250 9850 2250
Connection ~ 9850 2250
Wire Wire Line
	9850 2250 9850 2350
Wire Wire Line
	10400 2150 10450 2150
Wire Wire Line
	10450 2150 10450 2250
Wire Wire Line
	10450 2350 10400 2350
Wire Wire Line
	10400 2250 10450 2250
Connection ~ 10450 2250
Wire Wire Line
	10450 2250 10450 2350
$Comp
L power:Earth #PWR0110
U 1 1 5F316FE2
P 9750 2300
F 0 "#PWR0110" H 9750 2050 50  0001 C CNN
F 1 "Earth" H 9750 2150 50  0001 C CNN
F 2 "" H 9750 2300 50  0001 C CNN
F 3 "~" H 9750 2300 50  0001 C CNN
	1    9750 2300
	1    0    0    -1  
$EndComp
$Comp
L power:Earth #PWR0111
U 1 1 5F316FE8
P 10550 2300
F 0 "#PWR0111" H 10550 2050 50  0001 C CNN
F 1 "Earth" H 10550 2150 50  0001 C CNN
F 2 "" H 10550 2300 50  0001 C CNN
F 3 "~" H 10550 2300 50  0001 C CNN
	1    10550 2300
	1    0    0    -1  
$EndComp
Wire Wire Line
	10550 2300 10550 2250
Wire Wire Line
	10550 2250 10450 2250
Wire Wire Line
	9750 2300 9750 2250
Wire Wire Line
	9750 2250 9850 2250
Wire Wire Line
	3500 750  4600 750 
Connection ~ 3500 750 
Connection ~ 4600 750 
Wire Wire Line
	4600 750  5250 750 
Wire Wire Line
	5250 750  6350 750 
Connection ~ 5250 750 
Connection ~ 6350 750 
Wire Wire Line
	6350 750  7000 750 
Connection ~ 7000 750 
Wire Wire Line
	7000 750  8100 750 
Connection ~ 8100 750 
Wire Wire Line
	8100 750  8750 750 
Connection ~ 8750 750 
Wire Wire Line
	8750 750  9850 750 
Connection ~ 9850 750 
Wire Wire Line
	9850 750  10500 750 
Wire Wire Line
	10600 900  9750 900 
Connection ~ 3600 900 
Connection ~ 4500 900 
Wire Wire Line
	4500 900  3600 900 
Connection ~ 5350 900 
Wire Wire Line
	5350 900  4500 900 
Connection ~ 6250 900 
Wire Wire Line
	6250 900  5350 900 
Connection ~ 7100 900 
Wire Wire Line
	7100 900  6250 900 
Connection ~ 8000 900 
Wire Wire Line
	8000 900  7100 900 
Connection ~ 8850 900 
Wire Wire Line
	8850 900  8000 900 
Connection ~ 9750 900 
Wire Wire Line
	9750 900  8850 900 
Wire Wire Line
	3700 1050 4400 1050
Connection ~ 3700 1050
Connection ~ 4400 1050
Wire Wire Line
	4400 1050 5450 1050
Connection ~ 5450 1050
Wire Wire Line
	5450 1050 6150 1050
Connection ~ 6150 1050
Wire Wire Line
	6150 1050 7200 1050
Connection ~ 7200 1050
Wire Wire Line
	7200 1050 7900 1050
Connection ~ 7900 1050
Wire Wire Line
	7900 1050 8950 1050
Connection ~ 8950 1050
Wire Wire Line
	8950 1050 9650 1050
Connection ~ 9650 1050
Wire Wire Line
	9650 1050 10700 1050
Wire Wire Line
	3800 1200 4300 1200
Connection ~ 3800 1200
Connection ~ 4300 1200
Wire Wire Line
	4300 1200 5550 1200
Connection ~ 5550 1200
Wire Wire Line
	5550 1200 6050 1200
Connection ~ 6050 1200
Wire Wire Line
	6050 1200 7300 1200
Connection ~ 7300 1200
Wire Wire Line
	7300 1200 7800 1200
Connection ~ 7800 1200
Wire Wire Line
	7800 1200 9050 1200
Connection ~ 9050 1200
Wire Wire Line
	9050 1200 9550 1200
Connection ~ 9550 1200
Wire Wire Line
	9550 1200 10800 1200
Wire Wire Line
	3900 1350 4200 1350
Connection ~ 3900 1350
Connection ~ 4200 1350
Wire Wire Line
	4200 1350 5650 1350
Connection ~ 5650 1350
Wire Wire Line
	5650 1350 5950 1350
Connection ~ 5950 1350
Wire Wire Line
	5950 1350 7400 1350
Connection ~ 7400 1350
Wire Wire Line
	7400 1350 7700 1350
Connection ~ 7700 1350
Wire Wire Line
	7700 1350 9150 1350
Connection ~ 9150 1350
Wire Wire Line
	9150 1350 9450 1350
Connection ~ 9450 1350
Wire Wire Line
	9450 1350 10900 1350
$Comp
L Connector_Generic:Conn_02x08_Odd_Even J7
U 1 1 5F38BE69
P 3100 3950
F 0 "J7" H 3150 4467 50  0000 C CNN
F 1 "pwr" H 3150 4376 50  0000 C CNN
F 2 "project_lib:Pwr_eurorack" H 3100 3950 50  0001 C CNN
F 3 "~" H 3100 3950 50  0001 C CNN
	1    3100 3950
	1    0    0    -1  
$EndComp
Text Label 1750 3100 0    50   ~ 0
+12V
Text Label 1750 3250 0    50   ~ 0
-12V
Text Label 1750 2650 0    50   ~ 0
Gate
Text Label 1750 2800 0    50   ~ 0
CV
Text Label 1750 2950 0    50   ~ 0
+5V
Wire Wire Line
	2900 3650 2850 3650
Wire Wire Line
	2850 3650 2850 2650
Wire Wire Line
	2900 3750 2750 3750
Wire Wire Line
	2750 3750 2750 2800
Wire Wire Line
	2750 2800 1750 2800
Wire Wire Line
	2900 3850 2650 3850
Wire Wire Line
	2650 3850 2650 2950
Wire Wire Line
	2650 2950 1750 2950
Wire Wire Line
	2900 3950 2550 3950
Wire Wire Line
	2550 3950 2550 3100
Wire Wire Line
	2550 3100 1750 3100
Wire Wire Line
	2900 4350 2450 4350
Wire Wire Line
	2450 4350 2450 3250
Wire Wire Line
	2450 3250 1750 3250
Wire Wire Line
	3400 3650 3500 3650
Wire Wire Line
	3500 3650 3500 2650
Wire Wire Line
	1750 2650 2850 2650
Connection ~ 2850 2650
Wire Wire Line
	2850 2650 3500 2650
Wire Wire Line
	3600 3750 3600 2800
Wire Wire Line
	3600 2800 2750 2800
Wire Wire Line
	3400 3750 3600 3750
Connection ~ 2750 2800
Wire Wire Line
	3400 3850 3700 3850
Wire Wire Line
	3700 3850 3700 2950
Wire Wire Line
	3700 2950 2650 2950
Connection ~ 2650 2950
Wire Wire Line
	3400 3950 3800 3950
Wire Wire Line
	3800 3950 3800 3100
Wire Wire Line
	3800 3100 2550 3100
Connection ~ 2550 3100
Wire Wire Line
	3400 4350 3900 4350
Wire Wire Line
	3900 4350 3900 3250
Wire Wire Line
	3900 3250 2450 3250
Connection ~ 2450 3250
Wire Wire Line
	2900 4050 2850 4050
Wire Wire Line
	2850 4050 2850 4150
Wire Wire Line
	2850 4250 2900 4250
Wire Wire Line
	2900 4150 2850 4150
Connection ~ 2850 4150
Wire Wire Line
	2850 4150 2850 4250
Wire Wire Line
	3400 4050 3450 4050
Wire Wire Line
	3450 4050 3450 4150
Wire Wire Line
	3450 4250 3400 4250
Wire Wire Line
	3400 4150 3450 4150
Connection ~ 3450 4150
Wire Wire Line
	3450 4150 3450 4250
$Comp
L power:Earth #PWR0112
U 1 1 5F38BEA3
P 2750 4200
F 0 "#PWR0112" H 2750 3950 50  0001 C CNN
F 1 "Earth" H 2750 4050 50  0001 C CNN
F 2 "" H 2750 4200 50  0001 C CNN
F 3 "~" H 2750 4200 50  0001 C CNN
	1    2750 4200
	1    0    0    -1  
$EndComp
$Comp
L power:Earth #PWR0113
U 1 1 5F38BEA9
P 3550 4200
F 0 "#PWR0113" H 3550 3950 50  0001 C CNN
F 1 "Earth" H 3550 4050 50  0001 C CNN
F 2 "" H 3550 4200 50  0001 C CNN
F 3 "~" H 3550 4200 50  0001 C CNN
	1    3550 4200
	1    0    0    -1  
$EndComp
Wire Wire Line
	3550 4200 3550 4150
Wire Wire Line
	3550 4150 3450 4150
Wire Wire Line
	2750 4200 2750 4150
Wire Wire Line
	2750 4150 2850 4150
$Comp
L Connector_Generic:Conn_02x08_Odd_Even J8
U 1 1 5F38BEB3
P 4850 3950
F 0 "J8" H 4900 4467 50  0000 C CNN
F 1 "pwr" H 4900 4376 50  0000 C CNN
F 2 "project_lib:Pwr_eurorack" H 4850 3950 50  0001 C CNN
F 3 "~" H 4850 3950 50  0001 C CNN
	1    4850 3950
	1    0    0    -1  
$EndComp
Wire Wire Line
	4650 3650 4600 3650
Wire Wire Line
	4600 3650 4600 2650
Wire Wire Line
	4650 3750 4500 3750
Wire Wire Line
	4500 3750 4500 2800
Wire Wire Line
	4650 3850 4400 3850
Wire Wire Line
	4400 3850 4400 2950
Wire Wire Line
	4650 3950 4300 3950
Wire Wire Line
	4300 3950 4300 3100
Wire Wire Line
	4650 4350 4200 4350
Wire Wire Line
	4200 4350 4200 3250
Wire Wire Line
	5150 3650 5250 3650
Wire Wire Line
	5250 3650 5250 2650
Wire Wire Line
	5350 3750 5350 2800
Wire Wire Line
	5150 3750 5350 3750
Wire Wire Line
	5150 3850 5450 3850
Wire Wire Line
	5450 3850 5450 2950
Wire Wire Line
	5150 3950 5550 3950
Wire Wire Line
	5550 3950 5550 3100
Wire Wire Line
	5150 4350 5650 4350
Wire Wire Line
	5650 4350 5650 3250
Wire Wire Line
	4650 4050 4600 4050
Wire Wire Line
	4600 4050 4600 4150
Wire Wire Line
	4600 4250 4650 4250
Wire Wire Line
	4650 4150 4600 4150
Connection ~ 4600 4150
Wire Wire Line
	4600 4150 4600 4250
Wire Wire Line
	5150 4050 5200 4050
Wire Wire Line
	5200 4050 5200 4150
Wire Wire Line
	5200 4250 5150 4250
Wire Wire Line
	5150 4150 5200 4150
Connection ~ 5200 4150
Wire Wire Line
	5200 4150 5200 4250
$Comp
L power:Earth #PWR0114
U 1 1 5F38BED9
P 4500 4200
F 0 "#PWR0114" H 4500 3950 50  0001 C CNN
F 1 "Earth" H 4500 4050 50  0001 C CNN
F 2 "" H 4500 4200 50  0001 C CNN
F 3 "~" H 4500 4200 50  0001 C CNN
	1    4500 4200
	1    0    0    -1  
$EndComp
$Comp
L power:Earth #PWR0115
U 1 1 5F38BEDF
P 5300 4200
F 0 "#PWR0115" H 5300 3950 50  0001 C CNN
F 1 "Earth" H 5300 4050 50  0001 C CNN
F 2 "" H 5300 4200 50  0001 C CNN
F 3 "~" H 5300 4200 50  0001 C CNN
	1    5300 4200
	1    0    0    -1  
$EndComp
Wire Wire Line
	5300 4200 5300 4150
Wire Wire Line
	5300 4150 5200 4150
Wire Wire Line
	4500 4200 4500 4150
Wire Wire Line
	4500 4150 4600 4150
$Comp
L Connector_Generic:Conn_02x08_Odd_Even J9
U 1 1 5F38BEE9
P 6600 3950
F 0 "J9" H 6650 4467 50  0000 C CNN
F 1 "pwr" H 6650 4376 50  0000 C CNN
F 2 "project_lib:Pwr_eurorack" H 6600 3950 50  0001 C CNN
F 3 "~" H 6600 3950 50  0001 C CNN
	1    6600 3950
	1    0    0    -1  
$EndComp
Wire Wire Line
	6400 3650 6350 3650
Wire Wire Line
	6350 3650 6350 2650
Wire Wire Line
	6400 3750 6250 3750
Wire Wire Line
	6250 3750 6250 2800
Wire Wire Line
	6400 3850 6150 3850
Wire Wire Line
	6150 3850 6150 2950
Wire Wire Line
	6400 3950 6050 3950
Wire Wire Line
	6050 3950 6050 3100
Wire Wire Line
	6400 4350 5950 4350
Wire Wire Line
	5950 4350 5950 3250
Wire Wire Line
	6900 3650 7000 3650
Wire Wire Line
	7000 3650 7000 2650
Wire Wire Line
	7100 3750 7100 2800
Wire Wire Line
	6900 3750 7100 3750
Wire Wire Line
	6900 3850 7200 3850
Wire Wire Line
	7200 3850 7200 2950
Wire Wire Line
	6900 3950 7300 3950
Wire Wire Line
	7300 3950 7300 3100
Wire Wire Line
	6900 4350 7400 4350
Wire Wire Line
	7400 4350 7400 3250
Wire Wire Line
	6400 4050 6350 4050
Wire Wire Line
	6350 4050 6350 4150
Wire Wire Line
	6350 4250 6400 4250
Wire Wire Line
	6400 4150 6350 4150
Connection ~ 6350 4150
Wire Wire Line
	6350 4150 6350 4250
Wire Wire Line
	6900 4050 6950 4050
Wire Wire Line
	6950 4050 6950 4150
Wire Wire Line
	6950 4250 6900 4250
Wire Wire Line
	6900 4150 6950 4150
Connection ~ 6950 4150
Wire Wire Line
	6950 4150 6950 4250
$Comp
L power:Earth #PWR0116
U 1 1 5F38BF0F
P 6250 4200
F 0 "#PWR0116" H 6250 3950 50  0001 C CNN
F 1 "Earth" H 6250 4050 50  0001 C CNN
F 2 "" H 6250 4200 50  0001 C CNN
F 3 "~" H 6250 4200 50  0001 C CNN
	1    6250 4200
	1    0    0    -1  
$EndComp
$Comp
L power:Earth #PWR0117
U 1 1 5F38BF15
P 7050 4200
F 0 "#PWR0117" H 7050 3950 50  0001 C CNN
F 1 "Earth" H 7050 4050 50  0001 C CNN
F 2 "" H 7050 4200 50  0001 C CNN
F 3 "~" H 7050 4200 50  0001 C CNN
	1    7050 4200
	1    0    0    -1  
$EndComp
Wire Wire Line
	7050 4200 7050 4150
Wire Wire Line
	7050 4150 6950 4150
Wire Wire Line
	6250 4200 6250 4150
Wire Wire Line
	6250 4150 6350 4150
$Comp
L Connector_Generic:Conn_02x08_Odd_Even J10
U 1 1 5F38BF1F
P 8350 3950
F 0 "J10" H 8400 4467 50  0000 C CNN
F 1 "pwr" H 8400 4376 50  0000 C CNN
F 2 "project_lib:Pwr_eurorack" H 8350 3950 50  0001 C CNN
F 3 "~" H 8350 3950 50  0001 C CNN
	1    8350 3950
	1    0    0    -1  
$EndComp
Wire Wire Line
	8150 3650 8100 3650
Wire Wire Line
	8100 3650 8100 2650
Wire Wire Line
	8150 3750 8000 3750
Wire Wire Line
	8000 3750 8000 2800
Wire Wire Line
	8150 3850 7900 3850
Wire Wire Line
	7900 3850 7900 2950
Wire Wire Line
	8150 3950 7800 3950
Wire Wire Line
	7800 3950 7800 3100
Wire Wire Line
	8150 4350 7700 4350
Wire Wire Line
	7700 4350 7700 3250
Wire Wire Line
	8650 3650 8750 3650
Wire Wire Line
	8750 3650 8750 2650
Wire Wire Line
	8850 3750 8850 2800
Wire Wire Line
	8650 3750 8850 3750
Wire Wire Line
	8650 3850 8950 3850
Wire Wire Line
	8950 3850 8950 2950
Wire Wire Line
	8650 3950 9050 3950
Wire Wire Line
	9050 3950 9050 3100
Wire Wire Line
	8650 4350 9150 4350
Wire Wire Line
	9150 4350 9150 3250
Wire Wire Line
	8150 4050 8100 4050
Wire Wire Line
	8100 4050 8100 4150
Wire Wire Line
	8100 4250 8150 4250
Wire Wire Line
	8150 4150 8100 4150
Connection ~ 8100 4150
Wire Wire Line
	8100 4150 8100 4250
Wire Wire Line
	8650 4050 8700 4050
Wire Wire Line
	8700 4050 8700 4150
Wire Wire Line
	8700 4250 8650 4250
Wire Wire Line
	8650 4150 8700 4150
Connection ~ 8700 4150
Wire Wire Line
	8700 4150 8700 4250
$Comp
L power:Earth #PWR0118
U 1 1 5F38BF45
P 8000 4200
F 0 "#PWR0118" H 8000 3950 50  0001 C CNN
F 1 "Earth" H 8000 4050 50  0001 C CNN
F 2 "" H 8000 4200 50  0001 C CNN
F 3 "~" H 8000 4200 50  0001 C CNN
	1    8000 4200
	1    0    0    -1  
$EndComp
$Comp
L power:Earth #PWR0119
U 1 1 5F38BF4B
P 8800 4200
F 0 "#PWR0119" H 8800 3950 50  0001 C CNN
F 1 "Earth" H 8800 4050 50  0001 C CNN
F 2 "" H 8800 4200 50  0001 C CNN
F 3 "~" H 8800 4200 50  0001 C CNN
	1    8800 4200
	1    0    0    -1  
$EndComp
Wire Wire Line
	8800 4200 8800 4150
Wire Wire Line
	8800 4150 8700 4150
Wire Wire Line
	8000 4200 8000 4150
Wire Wire Line
	8000 4150 8100 4150
$Comp
L Connector_Generic:Conn_02x08_Odd_Even J11
U 1 1 5F38BF55
P 10100 3950
F 0 "J11" H 10150 4467 50  0000 C CNN
F 1 "pwr" H 10150 4376 50  0000 C CNN
F 2 "project_lib:Pwr_eurorack" H 10100 3950 50  0001 C CNN
F 3 "~" H 10100 3950 50  0001 C CNN
	1    10100 3950
	1    0    0    -1  
$EndComp
Wire Wire Line
	9900 3650 9850 3650
Wire Wire Line
	9850 3650 9850 2650
Wire Wire Line
	9900 3750 9750 3750
Wire Wire Line
	9750 3750 9750 2800
Wire Wire Line
	9900 3850 9650 3850
Wire Wire Line
	9650 3850 9650 2950
Wire Wire Line
	9900 3950 9550 3950
Wire Wire Line
	9550 3950 9550 3100
Wire Wire Line
	9900 4350 9450 4350
Wire Wire Line
	9450 4350 9450 3250
Wire Wire Line
	10400 3650 10500 3650
Wire Wire Line
	10500 3650 10500 2650
Wire Wire Line
	10600 3750 10600 2800
Wire Wire Line
	10400 3750 10600 3750
Wire Wire Line
	10400 3850 10700 3850
Wire Wire Line
	10700 3850 10700 2950
Wire Wire Line
	10400 3950 10800 3950
Wire Wire Line
	10800 3950 10800 3100
Wire Wire Line
	10400 4350 10900 4350
Wire Wire Line
	10900 4350 10900 3250
Wire Wire Line
	9900 4050 9850 4050
Wire Wire Line
	9850 4050 9850 4150
Wire Wire Line
	9850 4250 9900 4250
Wire Wire Line
	9900 4150 9850 4150
Connection ~ 9850 4150
Wire Wire Line
	9850 4150 9850 4250
Wire Wire Line
	10400 4050 10450 4050
Wire Wire Line
	10450 4050 10450 4150
Wire Wire Line
	10450 4250 10400 4250
Wire Wire Line
	10400 4150 10450 4150
Connection ~ 10450 4150
Wire Wire Line
	10450 4150 10450 4250
$Comp
L power:Earth #PWR0120
U 1 1 5F38BF7B
P 9750 4200
F 0 "#PWR0120" H 9750 3950 50  0001 C CNN
F 1 "Earth" H 9750 4050 50  0001 C CNN
F 2 "" H 9750 4200 50  0001 C CNN
F 3 "~" H 9750 4200 50  0001 C CNN
	1    9750 4200
	1    0    0    -1  
$EndComp
$Comp
L power:Earth #PWR0121
U 1 1 5F38BF81
P 10550 4200
F 0 "#PWR0121" H 10550 3950 50  0001 C CNN
F 1 "Earth" H 10550 4050 50  0001 C CNN
F 2 "" H 10550 4200 50  0001 C CNN
F 3 "~" H 10550 4200 50  0001 C CNN
	1    10550 4200
	1    0    0    -1  
$EndComp
Wire Wire Line
	10550 4200 10550 4150
Wire Wire Line
	10550 4150 10450 4150
Wire Wire Line
	9750 4200 9750 4150
Wire Wire Line
	9750 4150 9850 4150
Wire Wire Line
	3500 2650 4600 2650
Connection ~ 3500 2650
Connection ~ 4600 2650
Wire Wire Line
	4600 2650 5250 2650
Wire Wire Line
	5250 2650 6350 2650
Connection ~ 5250 2650
Connection ~ 6350 2650
Wire Wire Line
	6350 2650 7000 2650
Connection ~ 7000 2650
Wire Wire Line
	7000 2650 8100 2650
Connection ~ 8100 2650
Wire Wire Line
	8100 2650 8750 2650
Connection ~ 8750 2650
Wire Wire Line
	8750 2650 9850 2650
Connection ~ 9850 2650
Wire Wire Line
	9850 2650 10500 2650
Wire Wire Line
	10600 2800 9750 2800
Connection ~ 3600 2800
Connection ~ 4500 2800
Wire Wire Line
	4500 2800 3600 2800
Connection ~ 5350 2800
Wire Wire Line
	5350 2800 4500 2800
Connection ~ 6250 2800
Wire Wire Line
	6250 2800 5350 2800
Connection ~ 7100 2800
Wire Wire Line
	7100 2800 6250 2800
Connection ~ 8000 2800
Wire Wire Line
	8000 2800 7100 2800
Connection ~ 8850 2800
Wire Wire Line
	8850 2800 8000 2800
Connection ~ 9750 2800
Wire Wire Line
	9750 2800 8850 2800
Wire Wire Line
	3700 2950 4400 2950
Connection ~ 3700 2950
Connection ~ 4400 2950
Wire Wire Line
	4400 2950 5450 2950
Connection ~ 5450 2950
Wire Wire Line
	5450 2950 6150 2950
Connection ~ 6150 2950
Wire Wire Line
	6150 2950 7200 2950
Connection ~ 7200 2950
Wire Wire Line
	7200 2950 7900 2950
Connection ~ 7900 2950
Wire Wire Line
	7900 2950 8950 2950
Connection ~ 8950 2950
Wire Wire Line
	8950 2950 9650 2950
Connection ~ 9650 2950
Wire Wire Line
	9650 2950 10700 2950
Wire Wire Line
	3800 3100 4300 3100
Connection ~ 3800 3100
Connection ~ 4300 3100
Wire Wire Line
	4300 3100 5550 3100
Connection ~ 5550 3100
Wire Wire Line
	5550 3100 6050 3100
Connection ~ 6050 3100
Wire Wire Line
	6050 3100 7300 3100
Connection ~ 7300 3100
Wire Wire Line
	7300 3100 7800 3100
Connection ~ 7800 3100
Wire Wire Line
	7800 3100 9050 3100
Connection ~ 9050 3100
Wire Wire Line
	9050 3100 9550 3100
Connection ~ 9550 3100
Wire Wire Line
	9550 3100 10800 3100
Wire Wire Line
	3900 3250 4200 3250
Connection ~ 3900 3250
Connection ~ 4200 3250
Wire Wire Line
	4200 3250 5650 3250
Connection ~ 5650 3250
Wire Wire Line
	5650 3250 5950 3250
Connection ~ 5950 3250
Wire Wire Line
	5950 3250 7400 3250
Connection ~ 7400 3250
Wire Wire Line
	7400 3250 7700 3250
Connection ~ 7700 3250
Wire Wire Line
	7700 3250 9150 3250
Connection ~ 9150 3250
Wire Wire Line
	9150 3250 9450 3250
Connection ~ 9450 3250
Wire Wire Line
	9450 3250 10900 3250
$Comp
L Connector_Generic:Conn_02x08_Odd_Even J12
U 1 1 5F3CEB7B
P 3100 5850
F 0 "J12" H 3150 6367 50  0000 C CNN
F 1 "pwr" H 3150 6276 50  0000 C CNN
F 2 "project_lib:Pwr_eurorack" H 3100 5850 50  0001 C CNN
F 3 "~" H 3100 5850 50  0001 C CNN
	1    3100 5850
	1    0    0    -1  
$EndComp
Text Label 1750 5000 0    50   ~ 0
+12V
Text Label 1750 5150 0    50   ~ 0
-12V
Text Label 1750 4550 0    50   ~ 0
Gate
Text Label 1750 4700 0    50   ~ 0
CV
Text Label 1750 4850 0    50   ~ 0
+5V
Wire Wire Line
	2900 5550 2850 5550
Wire Wire Line
	2850 5550 2850 4550
Wire Wire Line
	2900 5650 2750 5650
Wire Wire Line
	2750 5650 2750 4700
Wire Wire Line
	2750 4700 1750 4700
Wire Wire Line
	2900 5750 2650 5750
Wire Wire Line
	2650 5750 2650 4850
Wire Wire Line
	2650 4850 1750 4850
Wire Wire Line
	2900 5850 2550 5850
Wire Wire Line
	2550 5850 2550 5000
Wire Wire Line
	2550 5000 1750 5000
Wire Wire Line
	2900 6250 2450 6250
Wire Wire Line
	2450 6250 2450 5150
Wire Wire Line
	2450 5150 1750 5150
Wire Wire Line
	3400 5550 3500 5550
Wire Wire Line
	3500 5550 3500 4550
Wire Wire Line
	1750 4550 2850 4550
Connection ~ 2850 4550
Wire Wire Line
	2850 4550 3500 4550
Wire Wire Line
	3600 5650 3600 4700
Wire Wire Line
	3600 4700 2750 4700
Wire Wire Line
	3400 5650 3600 5650
Connection ~ 2750 4700
Wire Wire Line
	3400 5750 3700 5750
Wire Wire Line
	3700 5750 3700 4850
Wire Wire Line
	3700 4850 2650 4850
Connection ~ 2650 4850
Wire Wire Line
	3400 5850 3800 5850
Wire Wire Line
	3800 5850 3800 5000
Wire Wire Line
	3800 5000 2550 5000
Connection ~ 2550 5000
Wire Wire Line
	3400 6250 3900 6250
Wire Wire Line
	3900 6250 3900 5150
Wire Wire Line
	3900 5150 2450 5150
Connection ~ 2450 5150
Wire Wire Line
	2900 5950 2850 5950
Wire Wire Line
	2850 5950 2850 6050
Wire Wire Line
	2850 6150 2900 6150
Wire Wire Line
	2900 6050 2850 6050
Connection ~ 2850 6050
Wire Wire Line
	2850 6050 2850 6150
Wire Wire Line
	3400 5950 3450 5950
Wire Wire Line
	3450 5950 3450 6050
Wire Wire Line
	3450 6150 3400 6150
Wire Wire Line
	3400 6050 3450 6050
Connection ~ 3450 6050
Wire Wire Line
	3450 6050 3450 6150
$Comp
L power:Earth #PWR0122
U 1 1 5F3CEBB5
P 2750 6100
F 0 "#PWR0122" H 2750 5850 50  0001 C CNN
F 1 "Earth" H 2750 5950 50  0001 C CNN
F 2 "" H 2750 6100 50  0001 C CNN
F 3 "~" H 2750 6100 50  0001 C CNN
	1    2750 6100
	1    0    0    -1  
$EndComp
$Comp
L power:Earth #PWR0123
U 1 1 5F3CEBBB
P 3550 6100
F 0 "#PWR0123" H 3550 5850 50  0001 C CNN
F 1 "Earth" H 3550 5950 50  0001 C CNN
F 2 "" H 3550 6100 50  0001 C CNN
F 3 "~" H 3550 6100 50  0001 C CNN
	1    3550 6100
	1    0    0    -1  
$EndComp
Wire Wire Line
	3550 6100 3550 6050
Wire Wire Line
	3550 6050 3450 6050
Wire Wire Line
	2750 6100 2750 6050
Wire Wire Line
	2750 6050 2850 6050
$Comp
L Connector_Generic:Conn_02x08_Odd_Even J13
U 1 1 5F3CEBC5
P 4850 5850
F 0 "J13" H 4900 6367 50  0000 C CNN
F 1 "pwr" H 4900 6276 50  0000 C CNN
F 2 "project_lib:Pwr_eurorack" H 4850 5850 50  0001 C CNN
F 3 "~" H 4850 5850 50  0001 C CNN
	1    4850 5850
	1    0    0    -1  
$EndComp
Wire Wire Line
	4650 5550 4600 5550
Wire Wire Line
	4600 5550 4600 4550
Wire Wire Line
	4650 5650 4500 5650
Wire Wire Line
	4500 5650 4500 4700
Wire Wire Line
	4650 5750 4400 5750
Wire Wire Line
	4400 5750 4400 4850
Wire Wire Line
	4650 5850 4300 5850
Wire Wire Line
	4300 5850 4300 5000
Wire Wire Line
	4650 6250 4200 6250
Wire Wire Line
	4200 6250 4200 5150
Wire Wire Line
	5150 5550 5250 5550
Wire Wire Line
	5250 5550 5250 4550
Wire Wire Line
	5350 5650 5350 4700
Wire Wire Line
	5150 5650 5350 5650
Wire Wire Line
	5150 5750 5450 5750
Wire Wire Line
	5450 5750 5450 4850
Wire Wire Line
	5150 5850 5550 5850
Wire Wire Line
	5550 5850 5550 5000
Wire Wire Line
	5150 6250 5650 6250
Wire Wire Line
	5650 6250 5650 5150
Wire Wire Line
	4650 5950 4600 5950
Wire Wire Line
	4600 5950 4600 6050
Wire Wire Line
	4600 6150 4650 6150
Wire Wire Line
	4650 6050 4600 6050
Connection ~ 4600 6050
Wire Wire Line
	4600 6050 4600 6150
Wire Wire Line
	5150 5950 5200 5950
Wire Wire Line
	5200 5950 5200 6050
Wire Wire Line
	5200 6150 5150 6150
Wire Wire Line
	5150 6050 5200 6050
Connection ~ 5200 6050
Wire Wire Line
	5200 6050 5200 6150
$Comp
L power:Earth #PWR0124
U 1 1 5F3CEBEB
P 4500 6100
F 0 "#PWR0124" H 4500 5850 50  0001 C CNN
F 1 "Earth" H 4500 5950 50  0001 C CNN
F 2 "" H 4500 6100 50  0001 C CNN
F 3 "~" H 4500 6100 50  0001 C CNN
	1    4500 6100
	1    0    0    -1  
$EndComp
$Comp
L power:Earth #PWR0125
U 1 1 5F3CEBF1
P 5300 6100
F 0 "#PWR0125" H 5300 5850 50  0001 C CNN
F 1 "Earth" H 5300 5950 50  0001 C CNN
F 2 "" H 5300 6100 50  0001 C CNN
F 3 "~" H 5300 6100 50  0001 C CNN
	1    5300 6100
	1    0    0    -1  
$EndComp
Wire Wire Line
	5300 6100 5300 6050
Wire Wire Line
	5300 6050 5200 6050
Wire Wire Line
	4500 6100 4500 6050
Wire Wire Line
	4500 6050 4600 6050
$Comp
L Connector_Generic:Conn_02x08_Odd_Even J14
U 1 1 5F3CEBFB
P 6600 5850
F 0 "J14" H 6650 6367 50  0000 C CNN
F 1 "pwr" H 6650 6276 50  0000 C CNN
F 2 "project_lib:Pwr_eurorack" H 6600 5850 50  0001 C CNN
F 3 "~" H 6600 5850 50  0001 C CNN
	1    6600 5850
	1    0    0    -1  
$EndComp
Wire Wire Line
	6400 5550 6350 5550
Wire Wire Line
	6350 5550 6350 4550
Wire Wire Line
	6400 5650 6250 5650
Wire Wire Line
	6250 5650 6250 4700
Wire Wire Line
	6400 5750 6150 5750
Wire Wire Line
	6150 5750 6150 4850
Wire Wire Line
	6400 5850 6050 5850
Wire Wire Line
	6050 5850 6050 5000
Wire Wire Line
	6400 6250 5950 6250
Wire Wire Line
	5950 6250 5950 5150
Wire Wire Line
	6900 5550 7000 5550
Wire Wire Line
	7000 5550 7000 4550
Wire Wire Line
	7100 5650 7100 4700
Wire Wire Line
	6900 5650 7100 5650
Wire Wire Line
	6900 5750 7200 5750
Wire Wire Line
	7200 5750 7200 4850
Wire Wire Line
	6900 5850 7300 5850
Wire Wire Line
	7300 5850 7300 5000
Wire Wire Line
	6900 6250 7400 6250
Wire Wire Line
	7400 6250 7400 5150
Wire Wire Line
	6400 5950 6350 5950
Wire Wire Line
	6350 5950 6350 6050
Wire Wire Line
	6350 6150 6400 6150
Wire Wire Line
	6400 6050 6350 6050
Connection ~ 6350 6050
Wire Wire Line
	6350 6050 6350 6150
Wire Wire Line
	6900 5950 6950 5950
Wire Wire Line
	6950 5950 6950 6050
Wire Wire Line
	6950 6150 6900 6150
Wire Wire Line
	6900 6050 6950 6050
Connection ~ 6950 6050
Wire Wire Line
	6950 6050 6950 6150
$Comp
L power:Earth #PWR0126
U 1 1 5F3CEC21
P 6250 6100
F 0 "#PWR0126" H 6250 5850 50  0001 C CNN
F 1 "Earth" H 6250 5950 50  0001 C CNN
F 2 "" H 6250 6100 50  0001 C CNN
F 3 "~" H 6250 6100 50  0001 C CNN
	1    6250 6100
	1    0    0    -1  
$EndComp
$Comp
L power:Earth #PWR0127
U 1 1 5F3CEC27
P 7050 6100
F 0 "#PWR0127" H 7050 5850 50  0001 C CNN
F 1 "Earth" H 7050 5950 50  0001 C CNN
F 2 "" H 7050 6100 50  0001 C CNN
F 3 "~" H 7050 6100 50  0001 C CNN
	1    7050 6100
	1    0    0    -1  
$EndComp
Wire Wire Line
	7050 6100 7050 6050
Wire Wire Line
	7050 6050 6950 6050
Wire Wire Line
	6250 6100 6250 6050
Wire Wire Line
	6250 6050 6350 6050
$Comp
L Connector_Generic:Conn_02x08_Odd_Even J15
U 1 1 5F3CEC31
P 8350 5850
F 0 "J15" H 8400 6367 50  0000 C CNN
F 1 "pwr" H 8400 6276 50  0000 C CNN
F 2 "project_lib:Pwr_eurorack" H 8350 5850 50  0001 C CNN
F 3 "~" H 8350 5850 50  0001 C CNN
	1    8350 5850
	1    0    0    -1  
$EndComp
Wire Wire Line
	8150 5550 8100 5550
Wire Wire Line
	8100 5550 8100 4550
Wire Wire Line
	8150 5650 8000 5650
Wire Wire Line
	8000 5650 8000 4700
Wire Wire Line
	8150 5750 7900 5750
Wire Wire Line
	7900 5750 7900 4850
Wire Wire Line
	8150 5850 7800 5850
Wire Wire Line
	7800 5850 7800 5000
Wire Wire Line
	8150 6250 7700 6250
Wire Wire Line
	7700 6250 7700 5150
Wire Wire Line
	8650 5550 8750 5550
Wire Wire Line
	8750 5550 8750 4550
Wire Wire Line
	8850 5650 8850 4700
Wire Wire Line
	8650 5650 8850 5650
Wire Wire Line
	8650 5750 8950 5750
Wire Wire Line
	8950 5750 8950 4850
Wire Wire Line
	8650 5850 9050 5850
Wire Wire Line
	9050 5850 9050 5000
Wire Wire Line
	8650 6250 9150 6250
Wire Wire Line
	9150 6250 9150 5150
Wire Wire Line
	8150 5950 8100 5950
Wire Wire Line
	8100 5950 8100 6050
Wire Wire Line
	8100 6150 8150 6150
Wire Wire Line
	8150 6050 8100 6050
Connection ~ 8100 6050
Wire Wire Line
	8100 6050 8100 6150
Wire Wire Line
	8650 5950 8700 5950
Wire Wire Line
	8700 5950 8700 6050
Wire Wire Line
	8700 6150 8650 6150
Wire Wire Line
	8650 6050 8700 6050
Connection ~ 8700 6050
Wire Wire Line
	8700 6050 8700 6150
$Comp
L power:Earth #PWR0128
U 1 1 5F3CEC57
P 8000 6100
F 0 "#PWR0128" H 8000 5850 50  0001 C CNN
F 1 "Earth" H 8000 5950 50  0001 C CNN
F 2 "" H 8000 6100 50  0001 C CNN
F 3 "~" H 8000 6100 50  0001 C CNN
	1    8000 6100
	1    0    0    -1  
$EndComp
$Comp
L power:Earth #PWR0129
U 1 1 5F3CEC5D
P 8800 6100
F 0 "#PWR0129" H 8800 5850 50  0001 C CNN
F 1 "Earth" H 8800 5950 50  0001 C CNN
F 2 "" H 8800 6100 50  0001 C CNN
F 3 "~" H 8800 6100 50  0001 C CNN
	1    8800 6100
	1    0    0    -1  
$EndComp
Wire Wire Line
	8800 6100 8800 6050
Wire Wire Line
	8800 6050 8700 6050
Wire Wire Line
	8000 6100 8000 6050
Wire Wire Line
	8000 6050 8100 6050
$Comp
L Connector_Generic:Conn_02x08_Odd_Even J16
U 1 1 5F3CEC67
P 10100 5850
F 0 "J16" H 10150 6367 50  0000 C CNN
F 1 "pwr" H 10150 6276 50  0000 C CNN
F 2 "project_lib:Pwr_eurorack" H 10100 5850 50  0001 C CNN
F 3 "~" H 10100 5850 50  0001 C CNN
	1    10100 5850
	1    0    0    -1  
$EndComp
Wire Wire Line
	9900 5550 9850 5550
Wire Wire Line
	9850 5550 9850 4550
Wire Wire Line
	9900 5650 9750 5650
Wire Wire Line
	9750 5650 9750 4700
Wire Wire Line
	9900 5750 9650 5750
Wire Wire Line
	9650 5750 9650 4850
Wire Wire Line
	9900 5850 9550 5850
Wire Wire Line
	9550 5850 9550 5000
Wire Wire Line
	9900 6250 9450 6250
Wire Wire Line
	9450 6250 9450 5150
Wire Wire Line
	10400 5550 10500 5550
Wire Wire Line
	10500 5550 10500 4550
Wire Wire Line
	10600 5650 10600 4700
Wire Wire Line
	10400 5650 10600 5650
Wire Wire Line
	10400 5750 10700 5750
Wire Wire Line
	10700 5750 10700 4850
Wire Wire Line
	10400 5850 10800 5850
Wire Wire Line
	10800 5850 10800 5000
Wire Wire Line
	10400 6250 10900 6250
Wire Wire Line
	10900 6250 10900 5150
Wire Wire Line
	9900 5950 9850 5950
Wire Wire Line
	9850 5950 9850 6050
Wire Wire Line
	9850 6150 9900 6150
Wire Wire Line
	9900 6050 9850 6050
Connection ~ 9850 6050
Wire Wire Line
	9850 6050 9850 6150
Wire Wire Line
	10400 5950 10450 5950
Wire Wire Line
	10450 5950 10450 6050
Wire Wire Line
	10450 6150 10400 6150
Wire Wire Line
	10400 6050 10450 6050
Connection ~ 10450 6050
Wire Wire Line
	10450 6050 10450 6150
$Comp
L power:Earth #PWR0130
U 1 1 5F3CEC8D
P 9750 6100
F 0 "#PWR0130" H 9750 5850 50  0001 C CNN
F 1 "Earth" H 9750 5950 50  0001 C CNN
F 2 "" H 9750 6100 50  0001 C CNN
F 3 "~" H 9750 6100 50  0001 C CNN
	1    9750 6100
	1    0    0    -1  
$EndComp
$Comp
L power:Earth #PWR0131
U 1 1 5F3CEC93
P 10550 6100
F 0 "#PWR0131" H 10550 5850 50  0001 C CNN
F 1 "Earth" H 10550 5950 50  0001 C CNN
F 2 "" H 10550 6100 50  0001 C CNN
F 3 "~" H 10550 6100 50  0001 C CNN
	1    10550 6100
	1    0    0    -1  
$EndComp
Wire Wire Line
	10550 6100 10550 6050
Wire Wire Line
	10550 6050 10450 6050
Wire Wire Line
	9750 6100 9750 6050
Wire Wire Line
	9750 6050 9850 6050
Wire Wire Line
	3500 4550 4600 4550
Connection ~ 3500 4550
Connection ~ 4600 4550
Wire Wire Line
	4600 4550 5250 4550
Wire Wire Line
	5250 4550 6350 4550
Connection ~ 5250 4550
Connection ~ 6350 4550
Wire Wire Line
	6350 4550 7000 4550
Connection ~ 7000 4550
Wire Wire Line
	7000 4550 8100 4550
Connection ~ 8100 4550
Wire Wire Line
	8100 4550 8750 4550
Connection ~ 8750 4550
Wire Wire Line
	8750 4550 9850 4550
Connection ~ 9850 4550
Wire Wire Line
	9850 4550 10500 4550
Wire Wire Line
	10600 4700 9750 4700
Connection ~ 3600 4700
Connection ~ 4500 4700
Wire Wire Line
	4500 4700 3600 4700
Connection ~ 5350 4700
Wire Wire Line
	5350 4700 4500 4700
Connection ~ 6250 4700
Wire Wire Line
	6250 4700 5350 4700
Connection ~ 7100 4700
Wire Wire Line
	7100 4700 6250 4700
Connection ~ 8000 4700
Wire Wire Line
	8000 4700 7100 4700
Connection ~ 8850 4700
Wire Wire Line
	8850 4700 8000 4700
Connection ~ 9750 4700
Wire Wire Line
	9750 4700 8850 4700
Wire Wire Line
	3700 4850 4400 4850
Connection ~ 3700 4850
Connection ~ 4400 4850
Wire Wire Line
	4400 4850 5450 4850
Connection ~ 5450 4850
Wire Wire Line
	5450 4850 6150 4850
Connection ~ 6150 4850
Wire Wire Line
	6150 4850 7200 4850
Connection ~ 7200 4850
Wire Wire Line
	7200 4850 7900 4850
Connection ~ 7900 4850
Wire Wire Line
	7900 4850 8950 4850
Connection ~ 8950 4850
Wire Wire Line
	8950 4850 9650 4850
Connection ~ 9650 4850
Wire Wire Line
	9650 4850 10700 4850
Wire Wire Line
	3800 5000 4300 5000
Connection ~ 3800 5000
Connection ~ 4300 5000
Wire Wire Line
	4300 5000 5550 5000
Connection ~ 5550 5000
Wire Wire Line
	5550 5000 6050 5000
Connection ~ 6050 5000
Wire Wire Line
	6050 5000 7300 5000
Connection ~ 7300 5000
Wire Wire Line
	7300 5000 7800 5000
Connection ~ 7800 5000
Wire Wire Line
	7800 5000 9050 5000
Connection ~ 9050 5000
Wire Wire Line
	9050 5000 9550 5000
Connection ~ 9550 5000
Wire Wire Line
	9550 5000 10800 5000
Wire Wire Line
	3900 5150 4200 5150
Connection ~ 3900 5150
Connection ~ 4200 5150
Wire Wire Line
	4200 5150 5650 5150
Connection ~ 5650 5150
Wire Wire Line
	5650 5150 5950 5150
Connection ~ 5950 5150
Wire Wire Line
	5950 5150 7400 5150
Connection ~ 7400 5150
Wire Wire Line
	7400 5150 7700 5150
Connection ~ 7700 5150
Wire Wire Line
	7700 5150 9150 5150
Connection ~ 9150 5150
Wire Wire Line
	9150 5150 9450 5150
Connection ~ 9450 5150
Wire Wire Line
	9450 5150 10900 5150
Text Label 650  6950 0    50   ~ 0
+12V
$Comp
L Regulator_Linear:L7805 U1
U 1 1 5F561D79
P 1950 6950
F 0 "U1" H 1950 7192 50  0000 C CNN
F 1 "L7805" H 1950 7101 50  0000 C CNN
F 2 "Package_TO_SOT_SMD:TO-252-2" H 1975 6800 50  0001 L CIN
F 3 "http://www.st.com/content/ccc/resource/technical/document/datasheet/41/4f/b3/b0/12/d4/47/88/CD00000444.pdf/files/CD00000444.pdf/jcr:content/translations/en.CD00000444.pdf" H 1950 6900 50  0001 C CNN
	1    1950 6950
	1    0    0    -1  
$EndComp
$Comp
L Device:C C2
U 1 1 5F564856
P 1350 7150
F 0 "C2" H 1465 7196 50  0000 L CNN
F 1 "100nF" H 1465 7105 50  0000 L CNN
F 2 "Capacitor_SMD:C_1210_3225Metric_Pad1.42x2.65mm_HandSolder" H 1388 7000 50  0001 C CNN
F 3 "~" H 1350 7150 50  0001 C CNN
	1    1350 7150
	1    0    0    -1  
$EndComp
$Comp
L Device:CP C1
U 1 1 5F565951
P 900 7150
F 0 "C1" H 1018 7196 50  0000 L CNN
F 1 "10µF" H 1018 7105 50  0000 L CNN
F 2 "Capacitor_SMD:CP_Elec_6.3x5.3" H 938 7000 50  0001 C CNN
F 3 "~" H 900 7150 50  0001 C CNN
	1    900  7150
	1    0    0    -1  
$EndComp
Wire Wire Line
	1650 6950 1350 6950
Wire Wire Line
	900  6950 900  7000
Wire Wire Line
	1350 7000 1350 6950
Connection ~ 1350 6950
Wire Wire Line
	1350 6950 900  6950
Wire Wire Line
	650  6950 900  6950
Connection ~ 900  6950
Wire Wire Line
	900  7300 900  7400
Wire Wire Line
	900  7400 1350 7400
Wire Wire Line
	1950 7400 1950 7250
Wire Wire Line
	1350 7300 1350 7400
Connection ~ 1350 7400
Wire Wire Line
	1350 7400 1950 7400
$Comp
L Device:CP C3
U 1 1 5F85510D
P 2350 7150
F 0 "C3" H 2468 7196 50  0000 L CNN
F 1 "10µF" H 2468 7105 50  0000 L CNN
F 2 "Capacitor_SMD:CP_Elec_4x5.3" H 2388 7000 50  0001 C CNN
F 3 "~" H 2350 7150 50  0001 C CNN
	1    2350 7150
	1    0    0    -1  
$EndComp
Wire Wire Line
	2350 7000 2350 6950
Wire Wire Line
	2350 6950 2250 6950
Wire Wire Line
	2350 7300 2350 7400
Wire Wire Line
	2350 7400 1950 7400
Connection ~ 1950 7400
Wire Wire Line
	1800 6550 1350 6550
Wire Wire Line
	1350 6550 1350 6950
Wire Wire Line
	2350 6950 2350 6550
Wire Wire Line
	2350 6550 2100 6550
Connection ~ 2350 6950
Wire Wire Line
	2350 6950 2750 6950
Text Label 2750 6950 2    50   ~ 0
+5V
$Comp
L Device:LED D1
U 1 1 5F46FDEA
P 850 3550
F 0 "D1" V 889 3432 50  0000 R CNN
F 1 "LED" V 798 3432 50  0000 R CNN
F 2 "LED_THT:LED_D5.0mm_FlatTop" H 850 3550 50  0001 C CNN
F 3 "~" H 850 3550 50  0001 C CNN
	1    850  3550
	0    1    1    0   
$EndComp
$Comp
L Device:LED D2
U 1 1 5F47064E
P 1200 3950
F 0 "D2" V 1239 3832 50  0000 R CNN
F 1 "LED" V 1148 3832 50  0000 R CNN
F 2 "LED_THT:LED_D5.0mm_FlatTop" H 1200 3950 50  0001 C CNN
F 3 "~" H 1200 3950 50  0001 C CNN
	1    1200 3950
	0    -1   -1   0   
$EndComp
$Comp
L Device:LED D3
U 1 1 5F470947
P 1600 3950
F 0 "D3" V 1639 3832 50  0000 R CNN
F 1 "LED" V 1548 3832 50  0000 R CNN
F 2 "LED_THT:LED_D5.0mm_FlatTop" H 1600 3950 50  0001 C CNN
F 3 "~" H 1600 3950 50  0001 C CNN
	1    1600 3950
	0    -1   -1   0   
$EndComp
Wire Wire Line
	1600 4100 1600 4200
Wire Wire Line
	1200 4100 1200 4200
Connection ~ 1200 4200
Wire Wire Line
	1200 4200 1200 4300
$Comp
L power:Earth #PWR0132
U 1 1 5F604705
P 1200 4300
F 0 "#PWR0132" H 1200 4050 50  0001 C CNN
F 1 "Earth" H 1200 4150 50  0001 C CNN
F 2 "" H 1200 4300 50  0001 C CNN
F 3 "~" H 1200 4300 50  0001 C CNN
	1    1200 4300
	1    0    0    -1  
$EndComp
$Comp
L Device:R R3
U 1 1 5F60530D
P 850 3950
F 0 "R3" H 920 3996 50  0000 L CNN
F 1 "2K2" H 920 3905 50  0000 L CNN
F 2 "Resistor_THT:R_Axial_DIN0207_L6.3mm_D2.5mm_P7.62mm_Horizontal" V 780 3950 50  0001 C CNN
F 3 "~" H 850 3950 50  0001 C CNN
	1    850  3950
	-1   0    0    1   
$EndComp
$Comp
L Device:R R1
U 1 1 5F6058E9
P 1200 3550
F 0 "R1" H 1270 3596 50  0000 L CNN
F 1 "2K2" H 1270 3505 50  0000 L CNN
F 2 "Resistor_THT:R_Axial_DIN0207_L6.3mm_D2.5mm_P7.62mm_Horizontal" V 1130 3550 50  0001 C CNN
F 3 "~" H 1200 3550 50  0001 C CNN
	1    1200 3550
	1    0    0    -1  
$EndComp
$Comp
L Device:R R2
U 1 1 5F605D36
P 1600 3550
F 0 "R2" H 1670 3596 50  0000 L CNN
F 1 "1K" H 1670 3505 50  0000 L CNN
F 2 "Resistor_THT:R_Axial_DIN0207_L6.3mm_D2.5mm_P7.62mm_Horizontal" V 1530 3550 50  0001 C CNN
F 3 "~" H 1600 3550 50  0001 C CNN
	1    1600 3550
	1    0    0    -1  
$EndComp
Wire Wire Line
	1600 3700 1600 3800
Wire Wire Line
	1200 3700 1200 3800
Wire Wire Line
	850  3800 850  3700
Wire Wire Line
	1600 4200 1200 4200
Wire Wire Line
	850  4100 850  4200
Wire Wire Line
	850  4200 1200 4200
Text Label 850  3150 3    50   ~ 0
-12V
Text Label 1200 3150 3    50   ~ 0
+12V
Text Label 1600 3150 3    50   ~ 0
+5V
Wire Wire Line
	850  3150 850  3400
Wire Wire Line
	1200 3150 1200 3400
Wire Wire Line
	1600 3150 1600 3400
$Comp
L Diode:B360 D4
U 1 1 5F40F1E2
P 1950 6550
F 0 "D4" H 1950 6767 50  0000 C CNN
F 1 "B360" H 1950 6676 50  0000 C CNN
F 2 "Diode_SMD:D_SMC" H 1950 6375 50  0001 C CNN
F 3 "http://www.jameco.com/Jameco/Products/ProdDS/1538777.pdf" H 1950 6550 50  0001 C CNN
	1    1950 6550
	1    0    0    -1  
$EndComp
$Comp
L power:Earth #PWR?
U 1 1 5F40E449
P 1950 7450
F 0 "#PWR?" H 1950 7200 50  0001 C CNN
F 1 "Earth" H 1950 7300 50  0001 C CNN
F 2 "" H 1950 7450 50  0001 C CNN
F 3 "~" H 1950 7450 50  0001 C CNN
	1    1950 7450
	1    0    0    -1  
$EndComp
Wire Wire Line
	1950 7450 1950 7400
$EndSCHEMATC
